[
  {
    "question": "What is the capital of India?",
    "option":[
      "Delhi",
      "punjab",
      "UP",
      "MP"
    ],
    "answerIndex": "1"
  },
  {
    "question": "Which is the largest India State by Area?",
    "option":[
      "Delhi",
      "punjab",
      "UP",
      "MP"
    ],
    "answerIndex": "3"
  },
  {
    "question": "What is the capital of UP?",
    "option":[
      "Delhi",
      "punjab",
      "Lucknow",
      "Noida"
    ],
    "answerIndex": "3"
  },
  {
    "question": "Which State has the largest Population in India?",
    "option":[
      "Punjab",
      "HP",
      "UP",
      "MP"
    ],
    "answerIndex": "1"
  },
  {
    "question": "Which of the following was most probably the first metal to be used in India?",
    "option":[
      "Iron",
      "Copper",
      "Gold",
      "Silver"
    ],
    "answerIndex": "2"
  }
]
